\relax 
\catcode `:\active 
\catcode `;\active 
\catcode `!\active 
\catcode `?\active 
\babel@aux{french}{}
\@writefile{toc}{\contentsline {subsection}{\numberline {0.1}\IeC {\'E}quation du saut}{1}}
\@writefile{toc}{\contentsline {subsection}{\numberline {0.2}Longueur du saut}{1}}
\@writefile{toc}{\contentsline {subsection}{\numberline {0.3}Conditions de franchissabilit\IeC {\'e}}{1}}
\@writefile{lof}{\contentsline {figure}{\numberline {1}{\ignorespaces L'abscisse du point E est $x_{min}$, celle du point G est $x_{max}$ et la longueur GF est $w$.}}{2}}
\@writefile{toc}{\contentsline {subsubsection}{\numberline {0.3.1}Premier crit\IeC {\`e}re de franchissabilit\IeC {\'e}}{2}}
\@writefile{toc}{\contentsline {subsubsection}{\numberline {0.3.2}Second crit\IeC {\`e}re de franchissabilit\IeC {\'e}}{2}}
\@writefile{toc}{\contentsline {subsection}{\numberline {0.4}\IeC {\'E}tude de l'enchainement de sauts}{3}}
\@writefile{toc}{\contentsline {subsubsection}{\numberline {0.4.1}Cas de deux obstacles}{3}}
\@writefile{toc}{\contentsline {subsubsection}{\numberline {0.4.2}G\IeC {\'e}n\IeC {\'e}ralisation au franchissement de multiples obstacles}{3}}
